#
# There is insufficient memory for the Java Runtime Environment to continue.
# Native memory allocation (malloc) failed to allocate 66736 bytes for Chunk::new
# Possible reasons:
#   The system is out of physical RAM or swap space
#   The process is running with CompressedOops enabled, and the Java Heap may be blocking the growth of the native heap
# Possible solutions:
#   Reduce memory load on the system
#   Increase physical memory or swap space
#   Check if swap backing store is full
#   Decrease Java heap size (-Xmx/-Xms)
#   Decrease number of Java threads
#   Decrease Java thread stack sizes (-Xss)
#   Set larger code cache with -XX:ReservedCodeCacheSize=
#   JVM is running with Unscaled Compressed Oops mode in which the Java heap is
#     placed in the first 4GB address space. The Java Heap base address is the
#     maximum limit for the native heap growth. Please use -XX:HeapBaseMinAddress
#     to set the Java Heap base and to place the Java Heap above 4GB virtual address.
# This output file may be truncated or incomplete.
#
#  Out of Memory Error (allocation.cpp:389), pid=7504, tid=0x0000000000005e5c
#
# JRE version: OpenJDK Runtime Environment (8.0_242-b01) (build 1.8.0_242-release-1644-b01)
# Java VM: OpenJDK 64-Bit Server VM (25.242-b01 mixed mode windows-amd64 compressed oops)
# Failed to write core dump. Minidumps are not enabled by default on client versions of Windows
#

---------------  T H R E A D  ---------------

Current thread (0x000000001a020000):  JavaThread "C2 CompilerThread2" daemon [_thread_in_native, id=24156, stack(0x000000001aae0000,0x000000001abe0000)]

Stack: [0x000000001aae0000,0x000000001abe0000]
[error occurred during error reporting (printing stack bounds), id 0xc0000005]

Native frames: (J=compiled Java code, j=interpreted, Vv=VM code, C=native code)


Current CompileTask:
C2:  35128 11598       4       sun.nio.fs.WindowsPath::getFileName (87 bytes)


---------------  P R O C E S S  ---------------

Java Threads: ( => current thread )
  0x000000002d4bb800 JavaThread "RMI TCP Connection(1)-127.0.0.1" daemon [_thread_in_native, id=26480, stack(0x0000000030860000,0x0000000030960000)]
  0x000000002d4c1000 JavaThread "RMI Reaper" [_thread_blocked, id=9388, stack(0x0000000030760000,0x0000000030860000)]
  0x000000002d4c1800 JavaThread "RMI TCP Accept-0" daemon [_thread_in_native, id=15188, stack(0x0000000030660000,0x0000000030760000)]
  0x000000002d4be800 JavaThread "GC Daemon" daemon [_thread_blocked, id=21016, stack(0x0000000030560000,0x0000000030660000)]
  0x000000002d4be000 JavaThread "RMI RenewClean-[127.0.0.1:17285,org.jetbrains.kotlin.daemon.common.LoopbackNetworkInterface$ClientLoopbackSocketFactory@166a9a2]" daemon [_thread_blocked, id=14356, stack(0x0000000030460000,0x0000000030560000)]
  0x000000002d4c0000 JavaThread "RMI Scheduler(0)" daemon [_thread_blocked, id=29144, stack(0x0000000030360000,0x0000000030460000)]
  0x000000002d4bb000 JavaThread "WorkerExecutor Queue Thread 2" [_thread_blocked, id=27488, stack(0x000000002f7f0000,0x000000002f8f0000)]
  0x000000002d4b3800 JavaThread "stdout" [_thread_in_native, id=10380, stack(0x000000002fa60000,0x000000002fb60000)]
  0x000000002d4b9800 JavaThread "stderr" [_thread_in_native, id=5312, stack(0x000000002f960000,0x000000002fa60000)]
  0x000000002d4b5000 JavaThread "pool-2-thread-1" [_thread_blocked, id=428, stack(0x000000002f5c0000,0x000000002f6c0000)]
  0x000000002d4b6800 JavaThread "WorkerExecutor Queue" [_thread_blocked, id=29244, stack(0x000000002f6f0000,0x000000002f7f0000)]
  0x000000002d4b8000 JavaThread "Cache worker for execution history cache (C:\Users\office\AndroidStudioProjects\MoviesTime\.gradle\6.5\executionHistory)" [_thread_blocked, id=23468, stack(0x000000002f0c0000,0x000000002f1c0000)]
  0x000000002d4b5800 JavaThread "Execution worker for ':' Thread 7" [_thread_blocked, id=28548, stack(0x000000002efc0000,0x000000002f0c0000)]
  0x000000001b8af800 JavaThread "Execution worker for ':' Thread 6" [_thread_blocked, id=28104, stack(0x000000002eec0000,0x000000002efc0000)]
  0x000000001b8a8000 JavaThread "Execution worker for ':' Thread 5" [_thread_in_native, id=24608, stack(0x000000002edc0000,0x000000002eec0000)]
  0x000000001b8af000 JavaThread "Execution worker for ':' Thread 4" [_thread_blocked, id=29516, stack(0x000000002ecc0000,0x000000002edc0000)]
  0x000000001b8ad800 JavaThread "Execution worker for ':' Thread 3" [_thread_blocked, id=22872, stack(0x000000002ebc0000,0x000000002ecc0000)]
  0x000000001b8ac800 JavaThread "Execution worker for ':' Thread 2" [_thread_blocked, id=17880, stack(0x000000002eac0000,0x000000002ebc0000)]
  0x000000001b8ac000 JavaThread "Execution worker for ':'" [_thread_blocked, id=23904, stack(0x000000002e390000,0x000000002e490000)]
  0x000000001b8b0800 JavaThread "Cache worker for file content cache (C:\Users\office\AndroidStudioProjects\MoviesTime\.gradle\6.5\fileContent)" [_thread_blocked, id=16900, stack(0x000000002e290000,0x000000002e390000)]
  0x000000001b8a2000 JavaThread "Memory manager" [_thread_blocked, id=23204, stack(0x000000002bde0000,0x000000002bee0000)]
  0x000000001b8a3800 JavaThread "Cache worker for Build Output Cleanup Cache (C:\Users\office\AndroidStudioProjects\MoviesTime\.gradle\buildOutputCleanup)" [_thread_blocked, id=27316, stack(0x000000002bce0000,0x000000002bde0000)]
  0x000000001b8a3000 JavaThread "jar transforms Thread 120" [_thread_blocked, id=13840, stack(0x000000002b770000,0x000000002b870000)]
  0x000000001b8a1800 JavaThread "jar transforms Thread 119" [_thread_blocked, id=17228, stack(0x000000002b670000,0x000000002b770000)]
  0x000000001b8a4800 JavaThread "jar transforms Thread 118" [_thread_blocked, id=16720, stack(0x000000002b570000,0x000000002b670000)]
  0x000000001b8a6800 JavaThread "jar transforms Thread 117" [_thread_blocked, id=21904, stack(0x000000002b470000,0x000000002b570000)]
  0x000000001b8a7800 JavaThread "jar transforms Thread 116" [_thread_blocked, id=15252, stack(0x000000002b370000,0x000000002b470000)]
  0x000000001b8a5000 JavaThread "jar transforms Thread 115" [_thread_blocked, id=24712, stack(0x000000002b270000,0x000000002b370000)]
  0x0000000020983000 JavaThread "jar transforms Thread 114" [_thread_blocked, id=17128, stack(0x000000002b170000,0x000000002b270000)]
  0x0000000020982000 JavaThread "jar transforms Thread 113" [_thread_blocked, id=25296, stack(0x000000002b070000,0x000000002b170000)]
  0x0000000020981800 JavaThread "jar transforms Thread 112" [_thread_blocked, id=15800, stack(0x000000002af70000,0x000000002b070000)]
  0x0000000020980800 JavaThread "jar transforms Thread 111" [_thread_blocked, id=2628, stack(0x000000002ae70000,0x000000002af70000)]
  0x0000000020980000 JavaThread "jar transforms Thread 110" [_thread_blocked, id=11616, stack(0x000000002ad70000,0x000000002ae70000)]
  0x000000002097f000 JavaThread "jar transforms Thread 109" [_thread_blocked, id=19248, stack(0x000000002ac70000,0x000000002ad70000)]
  0x0000000020977800 JavaThread "jar transforms Thread 108" [_thread_blocked, id=26308, stack(0x000000002ab70000,0x000000002ac70000)]
  0x000000002097e800 JavaThread "jar transforms Thread 107" [_thread_blocked, id=29260, stack(0x000000002aa70000,0x000000002ab70000)]
  0x000000002097d800 JavaThread "jar transforms Thread 106" [_thread_blocked, id=9848, stack(0x000000002a970000,0x000000002aa70000)]
  0x000000002097d000 JavaThread "jar transforms Thread 105" [_thread_blocked, id=13432, stack(0x000000002a870000,0x000000002a970000)]
  0x0000000020975800 JavaThread "jar transforms Thread 104" [_thread_blocked, id=11660, stack(0x000000002a770000,0x000000002a870000)]
  0x000000002097c000 JavaThread "jar transforms Thread 103" [_thread_blocked, id=27792, stack(0x000000002a670000,0x000000002a770000)]
  0x000000002097a000 JavaThread "jar transforms Thread 102" [_thread_blocked, id=12040, stack(0x000000002a570000,0x000000002a670000)]
  0x0000000020974800 JavaThread "jar transforms Thread 101" [_thread_blocked, id=17480, stack(0x000000002a470000,0x000000002a570000)]
  0x000000002097b800 JavaThread "jar transforms Thread 100" [_thread_blocked, id=22800, stack(0x000000002a370000,0x000000002a470000)]
  0x0000000020977000 JavaThread "jar transforms Thread 99" [_thread_blocked, id=29520, stack(0x000000002a270000,0x000000002a370000)]
  0x0000000020974000 JavaThread "jar transforms Thread 98" [_thread_blocked, id=28740, stack(0x000000002a170000,0x000000002a270000)]
  0x0000000020979000 JavaThread "jar transforms Thread 97" [_thread_blocked, id=17680, stack(0x000000002a070000,0x000000002a170000)]
  0x000000002097a800 JavaThread "jar transforms Thread 96" [_thread_blocked, id=4364, stack(0x0000000029f70000,0x000000002a070000)]
  0x0000000020976000 JavaThread "jar transforms Thread 95" [_thread_blocked, id=18956, stack(0x0000000029e70000,0x0000000029f70000)]
  0x0000000020978800 JavaThread "jar transforms Thread 94" [_thread_blocked, id=14772, stack(0x0000000029d70000,0x0000000029e70000)]
  0x000000001bb9a000 JavaThread "jar transforms Thread 93" [_thread_blocked, id=25136, stack(0x0000000029c70000,0x0000000029d70000)]
  0x000000001bb99800 JavaThread "jar transforms Thread 92" [_thread_blocked, id=22916, stack(0x0000000029b70000,0x0000000029c70000)]
  0x000000001bb98800 JavaThread "jar transforms Thread 91" [_thread_blocked, id=23768, stack(0x0000000029a70000,0x0000000029b70000)]
  0x000000001bb9d000 JavaThread "jar transforms Thread 90" [_thread_blocked, id=4480, stack(0x0000000029970000,0x0000000029a70000)]
  0x000000001bb9e800 JavaThread "jar transforms Thread 89" [_thread_blocked, id=10572, stack(0x0000000029870000,0x0000000029970000)]
  0x000000001bb9c800 JavaThread "jar transforms Thread 88" [_thread_blocked, id=29368, stack(0x0000000029770000,0x0000000029870000)]
  0x000000001bb9b000 JavaThread "jar transforms Thread 87" [_thread_blocked, id=24848, stack(0x0000000029670000,0x0000000029770000)]
  0x000000001bb9e000 JavaThread "jar transforms Thread 86" [_thread_blocked, id=11024, stack(0x0000000029570000,0x0000000029670000)]
  0x000000001bb9b800 JavaThread "jar transforms Thread 85" [_thread_blocked, id=24968, stack(0x0000000029470000,0x0000000029570000)]
  0x000000001bb98000 JavaThread "jar transforms Thread 84" [_thread_blocked, id=5440, stack(0x0000000029370000,0x0000000029470000)]
  0x000000001bb90800 JavaThread "jar transforms Thread 83" [_thread_blocked, id=21600, stack(0x0000000029270000,0x0000000029370000)]
  0x000000001bb97000 JavaThread "jar transforms Thread 82" [_thread_blocked, id=20760, stack(0x0000000029170000,0x0000000029270000)]
  0x000000001bb8f800 JavaThread "jar transforms Thread 81" [_thread_blocked, id=27960, stack(0x0000000029070000,0x0000000029170000)]
  0x000000001bb95000 JavaThread "jar transforms Thread 80" [_thread_blocked, id=26652, stack(0x0000000028f70000,0x0000000029070000)]
  0x000000001bb94000 JavaThread "jar transforms Thread 79" [_thread_blocked, id=25840, stack(0x0000000028e70000,0x0000000028f70000)]
  0x000000001bb96800 JavaThread "jar transforms Thread 78" [_thread_blocked, id=24756, stack(0x0000000028d70000,0x0000000028e70000)]
  0x000000001bb95800 JavaThread "jar transforms Thread 77" [_thread_blocked, id=2024, stack(0x0000000028c70000,0x0000000028d70000)]
  0x000000001bb92800 JavaThread "jar transforms Thread 76" [_thread_blocked, id=24772, stack(0x0000000028b70000,0x0000000028c70000)]
  0x000000001bb93800 JavaThread "jar transforms Thread 75" [_thread_blocked, id=16260, stack(0x0000000028a70000,0x0000000028b70000)]
  0x000000001bb92000 JavaThread "jar transforms Thread 74" [_thread_blocked, id=29212, stack(0x0000000028970000,0x0000000028a70000)]
  0x000000001bb91000 JavaThread "jar transforms Thread 73" [_thread_blocked, id=7912, stack(0x0000000028870000,0x0000000028970000)]
  0x000000001bd12800 JavaThread "jar transforms Thread 72" [_thread_blocked, id=6116, stack(0x0000000028770000,0x0000000028870000)]
  0x000000001bd17000 JavaThread "jar transforms Thread 71" [_thread_blocked, id=22684, stack(0x0000000028670000,0x0000000028770000)]
  0x000000001bd18800 JavaThread "jar transforms Thread 70" [_thread_blocked, id=9900, stack(0x0000000028570000,0x0000000028670000)]
  0x000000001bd17800 JavaThread "jar transforms Thread 69" [_thread_blocked, id=7656, stack(0x0000000028470000,0x0000000028570000)]
  0x000000001bd11800 JavaThread "jar transforms Thread 68" [_thread_blocked, id=2612, stack(0x0000000028370000,0x0000000028470000)]
  0x000000001bd16000 JavaThread "jar transforms Thread 67" [_thread_blocked, id=19880, stack(0x0000000028270000,0x0000000028370000)]
  0x000000001bd15800 JavaThread "jar transforms Thread 66" [_thread_blocked, id=6664, stack(0x0000000028170000,0x0000000028270000)]
  0x000000001bd14800 JavaThread "jar transforms Thread 65" [_thread_blocked, id=16740, stack(0x0000000028070000,0x0000000028170000)]
  0x000000001bd14000 JavaThread "jar transforms Thread 64" [_thread_blocked, id=17920, stack(0x0000000027f70000,0x0000000028070000)]
  0x000000001bd13000 JavaThread "jar transforms Thread 63" [_thread_blocked, id=27600, stack(0x0000000027e70000,0x0000000027f70000)]
  0x000000001bd0a000 JavaThread "jar transforms Thread 62" [_thread_blocked, id=20420, stack(0x0000000027d70000,0x0000000027e70000)]
  0x000000001bd11000 JavaThread "jar transforms Thread 61" [_thread_blocked, id=10608, stack(0x0000000027c70000,0x0000000027d70000)]
  0x000000001bd0b000 JavaThread "jar transforms Thread 60" [_thread_blocked, id=16828, stack(0x0000000027b70000,0x0000000027c70000)]
  0x000000001bd09800 JavaThread "jar transforms Thread 59" [_thread_blocked, id=1796, stack(0x0000000027a70000,0x0000000027b70000)]
  0x000000001bd10000 JavaThread "jar transforms Thread 58" [_thread_blocked, id=9384, stack(0x0000000027970000,0x0000000027a70000)]
  0x000000001bd0c800 JavaThread "jar transforms Thread 57" [_thread_blocked, id=27868, stack(0x0000000027870000,0x0000000027970000)]
  0x000000001bd0e800 JavaThread "jar transforms Thread 56" [_thread_blocked, id=10084, stack(0x0000000027770000,0x0000000027870000)]
  0x000000001bd0f800 JavaThread "jar transforms Thread 55" [_thread_blocked, id=26536, stack(0x0000000027670000,0x0000000027770000)]
  0x000000001bd0e000 JavaThread "jar transforms Thread 54" [_thread_blocked, id=14032, stack(0x0000000027570000,0x0000000027670000)]
  0x000000001bd0d000 JavaThread "jar transforms Thread 53" [_thread_blocked, id=24612, stack(0x0000000027470000,0x0000000027570000)]
  0x000000001bd0b800 JavaThread "jar transforms Thread 52" [_thread_blocked, id=28872, stack(0x0000000027370000,0x0000000027470000)]
  0x0000000020ae4000 JavaThread "jar transforms Thread 51" [_thread_blocked, id=23916, stack(0x0000000027270000,0x0000000027370000)]
  0x0000000020aea000 JavaThread "jar transforms Thread 50" [_thread_blocked, id=11812, stack(0x0000000027170000,0x0000000027270000)]
  0x0000000020ae9800 JavaThread "jar transforms Thread 49" [_thread_blocked, id=10384, stack(0x0000000027070000,0x0000000027170000)]
  0x0000000020aeb000 JavaThread "jar transforms Thread 48" [_thread_blocked, id=28884, stack(0x0000000026f70000,0x0000000027070000)]
  0x0000000020ae3800 JavaThread "jar transforms Thread 47" [_thread_blocked, id=27984, stack(0x0000000026e70000,0x0000000026f70000)]
  0x0000000020ae7000 JavaThread "jar transforms Thread 46" [_thread_blocked, id=6568, stack(0x0000000026d70000,0x0000000026e70000)]
  0x0000000020ae5000 JavaThread "jar transforms Thread 45" [_thread_blocked, id=13896, stack(0x0000000026c70000,0x0000000026d70000)]
  0x0000000020ae8000 JavaThread "jar transforms Thread 44" [_thread_blocked, id=28852, stack(0x0000000026b70000,0x0000000026c70000)]
  0x0000000020ae6800 JavaThread "jar transforms Thread 43" [_thread_blocked, id=3648, stack(0x0000000026a70000,0x0000000026b70000)]
  0x0000000020ae8800 JavaThread "jar transforms Thread 42" [_thread_blocked, id=17912, stack(0x0000000026970000,0x0000000026a70000)]
  0x0000000020ae5800 JavaThread "jar transforms Thread 41" [_thread_blocked, id=29076, stack(0x0000000026870000,0x0000000026970000)]
  0x0000000020adc000 JavaThread "jar transforms Thread 40" [_thread_blocked, id=10424, stack(0x0000000026770000,0x0000000026870000)]
  0x0000000020ae2800 JavaThread "jar transforms Thread 39" [_thread_blocked, id=27200, stack(0x0000000026670000,0x0000000026770000)]
  0x0000000020ae1000 JavaThread "jar transforms Thread 38" [_thread_blocked, id=12944, stack(0x0000000026570000,0x0000000026670000)]
  0x0000000020ae0800 JavaThread "jar transforms Thread 37" [_thread_blocked, id=624, stack(0x0000000026470000,0x0000000026570000)]
  0x0000000020adf800 JavaThread "jar transforms Thread 36" [_thread_blocked, id=17032, stack(0x0000000026370000,0x0000000026470000)]
  0x0000000020adf000 JavaThread "jar transforms Thread 35" [_thread_blocked, id=19324, stack(0x0000000026270000,0x0000000026370000)]
  0x0000000020ade000 JavaThread "jar transforms Thread 34" [_thread_blocked, id=24900, stack(0x0000000026170000,0x0000000026270000)]
  0x0000000020add800 JavaThread "jar transforms Thread 33" [_thread_blocked, id=23088, stack(0x0000000026070000,0x0000000026170000)]
  0x0000000020adc800 JavaThread "jar transforms Thread 32" [_thread_blocked, id=19100, stack(0x0000000025f70000,0x0000000026070000)]
  0x0000000020ae2000 JavaThread "jar transforms Thread 31" [_thread_blocked, id=21120, stack(0x0000000025e70000,0x0000000025f70000)]
  0x0000000020502800 JavaThread "jar transforms Thread 30" [_thread_blocked, id=13504, stack(0x0000000025d70000,0x0000000025e70000)]
  0x0000000020500000 JavaThread "jar transforms Thread 29" [_thread_blocked, id=29392, stack(0x0000000025c70000,0x0000000025d70000)]
  0x0000000020507000 JavaThread "jar transforms Thread 28" [_thread_blocked, id=26972, stack(0x0000000025b70000,0x0000000025c70000)]
  0x0000000020501000 JavaThread "jar transforms Thread 27" [_thread_blocked, id=11116, stack(0x0000000025a70000,0x0000000025b70000)]
  0x00000000204ff800 JavaThread "jar transforms Thread 26" [_thread_blocked, id=22892, stack(0x0000000025970000,0x0000000025a70000)]
  0x0000000020505800 JavaThread "jar transforms Thread 25" [_thread_blocked, id=26200, stack(0x0000000025870000,0x0000000025970000)]
  0x0000000020506000 JavaThread "jar transforms Thread 24" [_thread_blocked, id=25200, stack(0x0000000025770000,0x0000000025870000)]
  0x0000000020504800 JavaThread "jar transforms Thread 23" [_thread_blocked, id=19856, stack(0x0000000025670000,0x0000000025770000)]
  0x0000000020504000 JavaThread "jar transforms Thread 22" [_thread_blocked, id=29072, stack(0x0000000025570000,0x0000000025670000)]
  0x0000000020503000 JavaThread "jar transforms Thread 21" [_thread_blocked, id=492, stack(0x0000000025470000,0x0000000025570000)]
  0x0000000020501800 JavaThread "jar transforms Thread 20" [_thread_blocked, id=11088, stack(0x0000000025370000,0x0000000025470000)]
  0x00000000204f8000 JavaThread "jar transforms Thread 19" [_thread_blocked, id=11340, stack(0x0000000025270000,0x0000000025370000)]
  0x00000000204fe000 JavaThread "jar transforms Thread 18" [_thread_blocked, id=23272, stack(0x0000000025170000,0x0000000025270000)]
  0x00000000204fa000 JavaThread "jar transforms Thread 17" [_thread_blocked, id=7372, stack(0x0000000025070000,0x0000000025170000)]
  0x00000000204fd000 JavaThread "jar transforms Thread 16" [_thread_blocked, id=8444, stack(0x0000000024f70000,0x0000000025070000)]
  0x00000000204fc800 JavaThread "jar transforms Thread 15" [_thread_blocked, id=25080, stack(0x0000000024e70000,0x0000000024f70000)]
  0x00000000204f8800 JavaThread "jar transforms Thread 14" [_thread_blocked, id=27676, stack(0x0000000024d70000,0x0000000024e70000)]
  0x00000000204f9800 JavaThread "jar transforms Thread 13" [_thread_blocked, id=3020, stack(0x0000000024c70000,0x0000000024d70000)]
  0x00000000204fb800 JavaThread "jar transforms Thread 12" [_thread_blocked, id=25448, stack(0x0000000024b70000,0x0000000024c70000)]
  0x00000000204fe800 JavaThread "jar transforms Thread 11" [_thread_blocked, id=27272, stack(0x0000000024a70000,0x0000000024b70000)]
  0x00000000204fb000 JavaThread "jar transforms Thread 10" [_thread_blocked, id=11836, stack(0x0000000024970000,0x0000000024a70000)]
  0x000000001d04a000 JavaThread "jar transforms Thread 9" [_thread_blocked, id=22588, stack(0x0000000024870000,0x0000000024970000)]
  0x000000001d049800 JavaThread "jar transforms Thread 8" [_thread_blocked, id=27912, stack(0x0000000024770000,0x0000000024870000)]
  0x000000001d050000 JavaThread "jar transforms Thread 7" [_thread_blocked, id=24296, stack(0x0000000024670000,0x0000000024770000)]
  0x000000001d04d000 JavaThread "jar transforms Thread 6" [_thread_blocked, id=28316, stack(0x0000000024570000,0x0000000024670000)]
  0x000000001d048800 JavaThread "jar transforms Thread 5" [_thread_blocked, id=4180, stack(0x0000000024470000,0x0000000024570000)]
  0x000000001d04c800 JavaThread "jar transforms Thread 4" [_thread_blocked, id=28908, stack(0x0000000024370000,0x0000000024470000)]
  0x000000001d04f800 JavaThread "jar transforms Thread 3" [_thread_blocked, id=584, stack(0x0000000024270000,0x0000000024370000)]
  0x000000001d04b800 JavaThread "jar transforms Thread 2" [_thread_blocked, id=6672, stack(0x0000000024170000,0x0000000024270000)]
  0x000000001d04e800 JavaThread "Build operations Thread 8" [_thread_blocked, id=3056, stack(0x0000000023f70000,0x0000000024070000)]
  0x000000001d04b000 JavaThread "Build operations Thread 7" [_thread_blocked, id=24948, stack(0x0000000023e70000,0x0000000023f70000)]
  0x000000001d04e000 JavaThread "Build operations Thread 6" [_thread_blocked, id=14020, stack(0x0000000023d70000,0x0000000023e70000)]
  0x000000001d041000 JavaThread "Build operations Thread 5" [_thread_blocked, id=15668, stack(0x0000000023c70000,0x0000000023d70000)]
  0x000000001d043800 JavaThread "Build operations Thread 4" [_thread_blocked, id=11776, stack(0x0000000023b70000,0x0000000023c70000)]
  0x000000001d047000 JavaThread "Build operations Thread 3" [_thread_blocked, id=14560, stack(0x0000000023a70000,0x0000000023b70000)]
  0x000000001d042000 JavaThread "Build operations Thread 2" [_thread_blocked, id=1972, stack(0x0000000023970000,0x0000000023a70000)]
  0x000000001d042800 JavaThread "Build operations" [_thread_blocked, id=25608, stack(0x0000000023870000,0x0000000023970000)]
  0x000000001cacd000 JavaThread "Cache worker for file content cache (C:\Users\office\.gradle\caches\6.5\fileContent)" [_thread_blocked, id=23512, stack(0x00000000221a0000,0x00000000222a0000)]
  0x000000001caca000 JavaThread "jar transforms" [_thread_blocked, id=28660, stack(0x00000000220a0000,0x00000000221a0000)]
  0x000000001cac6800 JavaThread "Cache worker for execution history cache (C:\Users\office\.gradle\caches\6.5\executionHistory)" [_thread_blocked, id=18592, stack(0x00000000219a0000,0x0000000021aa0000)]
  0x000000001cac9800 JavaThread "Cache worker for cache directory md-rule (C:\Users\office\.gradle\caches\6.5\md-rule)" [_thread_blocked, id=26108, stack(0x00000000218a0000,0x00000000219a0000)]
  0x000000001cacc800 JavaThread "Cache worker for cache directory md-supplier (C:\Users\office\.gradle\caches\6.5\md-supplier)" [_thread_blocked, id=28356, stack(0x00000000217a0000,0x00000000218a0000)]
  0x000000001cacb000 JavaThread "Cache worker for checksums cache (C:\Users\office\AndroidStudioProjects\MoviesTime\.gradle\checksums)" [_thread_blocked, id=12700, stack(0x00000000214a0000,0x00000000215a0000)]
  0x000000001cac8000 JavaThread "Cache worker for file hash cache (C:\Users\office\AndroidStudioProjects\MoviesTime\.gradle\6.5\fileHashes)" [_thread_blocked, id=16156, stack(0x00000000213a0000,0x00000000214a0000)]
  0x000000001cac8800 JavaThread "Cache worker for file hash cache (C:\Users\office\.gradle\caches\6.5\fileHashes)" [_thread_blocked, id=11300, stack(0x000000001fed0000,0x000000001ffd0000)]
  0x000000001cacb800 JavaThread "File lock request listener" [_thread_in_native, id=26072, stack(0x000000001ee00000,0x000000001ef00000)]
  0x000000001ba5b800 JavaThread "Cache worker for journal cache (C:\Users\office\.gradle\caches\journal-1)" [_thread_blocked, id=13568, stack(0x000000001ed00000,0x000000001ee00000)]
  0x000000001c9e2000 JavaThread "Thread-9" [_thread_blocked, id=16396, stack(0x000000001ea00000,0x000000001eb00000)]
  0x000000001b293000 JavaThread "Stdin handler" [_thread_blocked, id=16956, stack(0x000000001e900000,0x000000001ea00000)]
  0x000000001b292800 JavaThread "Asynchronous log dispatcher for DefaultDaemonConnection: socket connection from /127.0.0.1:56176 to /127.0.0.1:56177" [_thread_blocked, id=10336, stack(0x000000001e800000,0x000000001e900000)]
  0x000000001afb9000 JavaThread "Daemon worker" [_thread_blocked, id=6488, stack(0x000000001e700000,0x000000001e800000)]
  0x000000001c953800 JavaThread "Cancel handler" [_thread_blocked, id=28144, stack(0x000000001e600000,0x000000001e700000)]
  0x000000001ca8d000 JavaThread "Handler for socket connection from /127.0.0.1:56176 to /127.0.0.1:56177" [_thread_in_native, id=22600, stack(0x000000001e500000,0x000000001e600000)]
  0x000000001ca89800 JavaThread "Daemon" [_thread_blocked, id=11924, stack(0x000000001e200000,0x000000001e300000)]
  0x000000001ca86000 JavaThread "Daemon periodic checks" [_thread_blocked, id=27260, stack(0x000000001e100000,0x000000001e200000)]
  0x000000001ca7b000 JavaThread "Incoming local TCP Connector on port 56176" [_thread_in_native, id=27420, stack(0x000000001dec0000,0x000000001dfc0000)]
  0x000000001c6ae800 JavaThread "Daemon health stats" [_thread_blocked, id=5628, stack(0x000000001d880000,0x000000001d980000)]
  0x000000001a070000 JavaThread "Service Thread" daemon [_thread_blocked, id=17944, stack(0x000000001ace0000,0x000000001ade0000)]
  0x000000001a024000 JavaThread "C1 CompilerThread3" daemon [_thread_blocked, id=10028, stack(0x000000001abe0000,0x000000001ace0000)]
=>0x000000001a020000 JavaThread "C2 CompilerThread2" daemon [_thread_in_native, id=24156, stack(0x000000001aae0000,0x000000001abe0000)]
  0x000000001a015000 JavaThread "C2 CompilerThread1" daemon [_thread_blocked, id=16160, stack(0x000000001a9e0000,0x000000001aae0000)]
  0x000000001a010000 JavaThread "C2 CompilerThread0" daemon [_thread_blocked, id=12160, stack(0x000000001a8e0000,0x000000001a9e0000)]
  0x000000001a00f000 JavaThread "Attach Listener" daemon [_thread_blocked, id=24460, stack(0x000000001a7e0000,0x000000001a8e0000)]
  0x000000001a00e000 JavaThread "Signal Dispatcher" daemon [_thread_blocked, id=22616, stack(0x000000001a6e0000,0x000000001a7e0000)]
  0x000000001a001000 JavaThread "Finalizer" daemon [_thread_blocked, id=27096, stack(0x000000001a4e0000,0x000000001a5e0000)]
  0x000000001820c800 JavaThread "Reference Handler" daemon [_thread_blocked, id=23856, stack(0x000000001a3e0000,0x000000001a4e0000)]
  0x00000000030a0800 JavaThread "main" [_thread_blocked, id=7304, stack(0x0000000002fa0000,0x00000000030a0000)]

Other Threads:
  0x0000000018207800 VMThread [stack: 0x0000000019ee0000,0x0000000019fe0000] [id=6740]
  0x000000001a071000 WatcherThread [stack: 0x000000001ade0000,0x000000001aee0000] [id=26996]

VM state:not at safepoint (normal execution)

VM Mutex/Monitor currently owned by a thread: None

heap address: 0x0000000080000000, size: 2048 MB, Compressed Oops mode: 32-bit
Narrow klass base: 0x0000000000000000, Narrow klass shift: 3
Compressed class space size: 1073741824 Address: 0x0000000100000000

Heap:
 PSYoungGen      total 180224K, used 76200K [0x00000000d5580000, 0x00000000e4900000, 0x0000000100000000)
  eden space 137216K, 27% used [0x00000000d5580000,0x00000000d7a61020,0x00000000ddb80000)
  from space 43008K, 89% used [0x00000000ddb80000,0x00000000e0109358,0x00000000e0580000)
  to   space 48128K, 0% used [0x00000000e1a00000,0x00000000e1a00000,0x00000000e4900000)
 ParOldGen       total 136192K, used 62991K [0x0000000080000000, 0x0000000088500000, 0x00000000d5580000)
  object space 136192K, 46% used [0x0000000080000000,0x0000000083d83de0,0x0000000088500000)
 Metaspace       used 80727K, capacity 84584K, committed 84888K, reserved 1122304K
  class space    used 10928K, capacity 11606K, committed 11696K, reserved 1048576K

Card table byte_map: [0x0000000012560000,0x0000000012970000] byte_map_base: 0x0000000012160000

Marking Bits: (ParMarkBitMap*) 0x000000006db9f030
 Begin Bits: [0x0000000013420000, 0x0000000015420000)
 End Bits:   [0x0000000015420000, 0x0000000017420000)

Polling page: 0x0000000002ee0000

CodeCache: size=245760Kb used=31345Kb max_used=31356Kb free=214414Kb
 bounds [0x00000000031a0000, 0x0000000005070000, 0x00000000121a0000]
 total_blobs=10751 nmethods=9875 adapters=788
 compilation: enabled

Compilation events (10 events):
Event: 34.494 Thread 0x000000001a024000 nmethod 11593 0x00000000049d6090 code [0x00000000049d61e0, 0x00000000049d62d0]
Event: 34.507 Thread 0x000000001a024000 11594  s    3       java.io.ExpiringCache::clear (10 bytes)
Event: 34.507 Thread 0x000000001a024000 nmethod 11594 0x0000000005052750 code [0x00000000050528c0, 0x0000000005052c48]
Event: 34.614 Thread 0x000000001a024000 11595       3       kotlin.io.FileTreeWalk$FileTreeWalkIterator$BottomUpDirectoryState::step (227 bytes)
Event: 34.617 Thread 0x000000001a024000 nmethod 11595 0x0000000005050310 code [0x0000000005050600, 0x0000000005051e48]
Event: 34.992 Thread 0x000000001a024000 11597   !   3       kotlin.io.CloseableKt::closeFinally (38 bytes)
Event: 34.992 Thread 0x000000001a024000 nmethod 11597 0x000000000504f890 code [0x000000000504fa20, 0x000000000504fde8]
Event: 35.119 Thread 0x000000001a020000 11598       4       sun.nio.fs.WindowsPath::getFileName (87 bytes)
Event: 35.124 Thread 0x000000001a015000 11599       4       java.util.concurrent.ArrayBlockingQueue::checkNotNull (13 bytes)
Event: 35.125 Thread 0x000000001a015000 nmethod 11599 0x0000000004b40d50 code [0x0000000004b40e80, 0x0000000004b40ed8]

GC Heap History (10 events):
Event: 14.509 GC heap before
{Heap before GC invocations=20 (full 3):
 PSYoungGen      total 147456K, used 140668K [0x00000000d5580000, 0x00000000df880000, 0x0000000100000000)
  eden space 129024K, 100% used [0x00000000d5580000,0x00000000dd380000,0x00000000dd380000)
  from space 18432K, 63% used [0x00000000de680000,0x00000000df1df098,0x00000000df880000)
  to   space 18944K, 0% used [0x00000000dd380000,0x00000000dd380000,0x00000000de600000)
 ParOldGen       total 136192K, used 36486K [0x0000000080000000, 0x0000000088500000, 0x00000000d5580000)
  object space 136192K, 26% used [0x0000000080000000,0x00000000823a1868,0x0000000088500000)
 Metaspace       used 66375K, capacity 69648K, committed 69912K, reserved 1110016K
  class space    used 9098K, capacity 9747K, committed 9776K, reserved 1048576K
Event: 14.519 GC heap after
Heap after GC invocations=20 (full 3):
 PSYoungGen      total 147968K, used 16933K [0x00000000d5580000, 0x00000000e0800000, 0x0000000100000000)
  eden space 129024K, 0% used [0x00000000d5580000,0x00000000d5580000,0x00000000dd380000)
  from space 18944K, 89% used [0x00000000dd380000,0x00000000de409730,0x00000000de600000)
  to   space 20992K, 0% used [0x00000000df380000,0x00000000df380000,0x00000000e0800000)
 ParOldGen       total 136192K, used 36494K [0x0000000080000000, 0x0000000088500000, 0x00000000d5580000)
  object space 136192K, 26% used [0x0000000080000000,0x00000000823a3868,0x0000000088500000)
 Metaspace       used 66375K, capacity 69648K, committed 69912K, reserved 1110016K
  class space    used 9098K, capacity 9747K, committed 9776K, reserved 1048576K
}
Event: 15.996 GC heap before
{Heap before GC invocations=21 (full 3):
 PSYoungGen      total 147968K, used 145957K [0x00000000d5580000, 0x00000000e0800000, 0x0000000100000000)
  eden space 129024K, 100% used [0x00000000d5580000,0x00000000dd380000,0x00000000dd380000)
  from space 18944K, 89% used [0x00000000dd380000,0x00000000de409730,0x00000000de600000)
  to   space 20992K, 0% used [0x00000000df380000,0x00000000df380000,0x00000000e0800000)
 ParOldGen       total 136192K, used 36494K [0x0000000080000000, 0x0000000088500000, 0x00000000d5580000)
  object space 136192K, 26% used [0x0000000080000000,0x00000000823a3868,0x0000000088500000)
 Metaspace       used 68920K, capacity 72338K, committed 72600K, reserved 1112064K
  class space    used 9420K, capacity 10088K, committed 10160K, reserved 1048576K
Event: 16.048 GC heap after
Heap after GC invocations=21 (full 3):
 PSYoungGen      total 148480K, used 20988K [0x00000000d5580000, 0x00000000e2680000, 0x0000000100000000)
  eden space 127488K, 0% used [0x00000000d5580000,0x00000000d5580000,0x00000000dd200000)
  from space 20992K, 99% used [0x00000000df380000,0x00000000e07ff188,0x00000000e0800000)
  to   space 34304K, 0% used [0x00000000dd200000,0x00000000dd200000,0x00000000df380000)
 ParOldGen       total 136192K, used 62967K [0x0000000080000000, 0x0000000088500000, 0x00000000d5580000)
  object space 136192K, 46% used [0x0000000080000000,0x0000000083d7dde0,0x0000000088500000)
 Metaspace       used 68920K, capacity 72338K, committed 72600K, reserved 1112064K
  class space    used 9420K, capacity 10088K, committed 10160K, reserved 1048576K
}
Event: 18.194 GC heap before
{Heap before GC invocations=22 (full 3):
 PSYoungGen      total 148480K, used 148476K [0x00000000d5580000, 0x00000000e2680000, 0x0000000100000000)
  eden space 127488K, 100% used [0x00000000d5580000,0x00000000dd200000,0x00000000dd200000)
  from space 20992K, 99% used [0x00000000df380000,0x00000000e07ff188,0x00000000e0800000)
  to   space 34304K, 0% used [0x00000000dd200000,0x00000000dd200000,0x00000000df380000)
 ParOldGen       total 136192K, used 62967K [0x0000000080000000, 0x0000000088500000, 0x00000000d5580000)
  object space 136192K, 46% used [0x0000000080000000,0x0000000083d7dde0,0x0000000088500000)
 Metaspace       used 72257K, capacity 75778K, committed 76056K, reserved 1114112K
  class space    used 9840K, capacity 10500K, committed 10544K, reserved 1048576K
Event: 18.211 GC heap after
Heap after GC invocations=22 (full 3):
 PSYoungGen      total 161792K, used 28894K [0x00000000d5580000, 0x00000000e2a80000, 0x0000000100000000)
  eden space 127488K, 0% used [0x00000000d5580000,0x00000000d5580000,0x00000000dd200000)
  from space 34304K, 84% used [0x00000000dd200000,0x00000000dee37bf0,0x00000000df380000)
  to   space 37888K, 0% used [0x00000000e0580000,0x00000000e0580000,0x00000000e2a80000)
 ParOldGen       total 136192K, used 62975K [0x0000000080000000, 0x0000000088500000, 0x00000000d5580000)
  object space 136192K, 46% used [0x0000000080000000,0x0000000083d7fde0,0x0000000088500000)
 Metaspace       used 72257K, capacity 75778K, committed 76056K, reserved 1114112K
  class space    used 9840K, capacity 10500K, committed 10544K, reserved 1048576K
}
Event: 19.588 GC heap before
{Heap before GC invocations=23 (full 3):
 PSYoungGen      total 161792K, used 156382K [0x00000000d5580000, 0x00000000e2a80000, 0x0000000100000000)
  eden space 127488K, 100% used [0x00000000d5580000,0x00000000dd200000,0x00000000dd200000)
  from space 34304K, 84% used [0x00000000dd200000,0x00000000dee37bf0,0x00000000df380000)
  to   space 37888K, 0% used [0x00000000e0580000,0x00000000e0580000,0x00000000e2a80000)
 ParOldGen       total 136192K, used 62975K [0x0000000080000000, 0x0000000088500000, 0x00000000d5580000)
  object space 136192K, 46% used [0x0000000080000000,0x0000000083d7fde0,0x0000000088500000)
 Metaspace       used 75628K, capacity 79282K, committed 79384K, reserved 1118208K
  class space    used 10290K, capacity 10956K, committed 11056K, reserved 1048576K
Event: 19.626 GC heap after
Heap after GC invocations=23 (full 3):
 PSYoungGen      total 175104K, used 34438K [0x00000000d5580000, 0x00000000e3680000, 0x0000000100000000)
  eden space 137216K, 0% used [0x00000000d5580000,0x00000000d5580000,0x00000000ddb80000)
  from space 37888K, 90% used [0x00000000e0580000,0x00000000e2721870,0x00000000e2a80000)
  to   space 43008K, 0% used [0x00000000ddb80000,0x00000000ddb80000,0x00000000e0580000)
 ParOldGen       total 136192K, used 62983K [0x0000000080000000, 0x0000000088500000, 0x00000000d5580000)
  object space 136192K, 46% used [0x0000000080000000,0x0000000083d81de0,0x0000000088500000)
 Metaspace       used 75628K, capacity 79282K, committed 79384K, reserved 1118208K
  class space    used 10290K, capacity 10956K, committed 11056K, reserved 1048576K
}
Event: 24.014 GC heap before
{Heap before GC invocations=24 (full 3):
 PSYoungGen      total 175104K, used 171652K [0x00000000d5580000, 0x00000000e3680000, 0x0000000100000000)
  eden space 137216K, 99% used [0x00000000d5580000,0x00000000ddb7f858,0x00000000ddb80000)
  from space 37888K, 90% used [0x00000000e0580000,0x00000000e2721870,0x00000000e2a80000)
  to   space 43008K, 0% used [0x00000000ddb80000,0x00000000ddb80000,0x00000000e0580000)
 ParOldGen       total 136192K, used 62983K [0x0000000080000000, 0x0000000088500000, 0x00000000d5580000)
  object space 136192K, 46% used [0x0000000080000000,0x0000000083d81de0,0x0000000088500000)
 Metaspace       used 78529K, capacity 82164K, committed 82456K, reserved 1120256K
  class space    used 10600K, capacity 11269K, committed 11312K, reserved 1048576K
Event: 24.037 GC heap after
Heap after GC invocations=24 (full 3):
 PSYoungGen      total 180224K, used 38436K [0x00000000d5580000, 0x00000000e4900000, 0x0000000100000000)
  eden space 137216K, 0% used [0x00000000d5580000,0x00000000d5580000,0x00000000ddb80000)
  from space 43008K, 89% used [0x00000000ddb80000,0x00000000e0109358,0x00000000e0580000)
  to   space 48128K, 0% used [0x00000000e1a00000,0x00000000e1a00000,0x00000000e4900000)
 ParOldGen       total 136192K, used 62991K [0x0000000080000000, 0x0000000088500000, 0x00000000d5580000)
  object space 136192K, 46% used [0x0000000080000000,0x0000000083d83de0,0x0000000088500000)
 Metaspace       used 78529K, capacity 82164K, committed 82456K, reserved 1120256K
  class space    used 10600K, capacity 11269K, committed 11312K, reserved 1048576K
}

Deoptimization events (10 events):
Event: 26.451 Thread 0x000000001b8a8000 Uncommon trap: reason=array_check action=maybe_recompile pc=0x0000000004d8fe60 method=java.util.TimSort.binarySort([Ljava/lang/Object;IIILjava/util/Comparator;)V @ 215
Event: 26.452 Thread 0x000000001b8a8000 Uncommon trap: reason=array_check action=maybe_recompile pc=0x0000000004d8fe60 method=java.util.TimSort.binarySort([Ljava/lang/Object;IIILjava/util/Comparator;)V @ 215
Event: 26.452 Thread 0x000000001b8a8000 Uncommon trap: reason=array_check action=maybe_recompile pc=0x0000000004d8fe60 method=java.util.TimSort.binarySort([Ljava/lang/Object;IIILjava/util/Comparator;)V @ 215
Event: 26.505 Thread 0x000000002d4bb800 Uncommon trap: reason=class_check action=maybe_recompile pc=0x00000000040b4d44 method=java.lang.ThreadLocal.set(Ljava/lang/Object;)V @ 26
Event: 26.505 Thread 0x000000002d4bb800 Uncommon trap: reason=unstable_if action=reinterpret pc=0x0000000003e82f74 method=java.io.BufferedInputStream.fill()V @ 9
Event: 26.508 Thread 0x000000002d4bb800 Uncommon trap: reason=class_check action=maybe_recompile pc=0x0000000004fcd960 method=java.lang.reflect.Array.newInstance(Ljava/lang/Class;I)Ljava/lang/Object; @ 2
Event: 34.430 Thread 0x000000001b8a8000 Uncommon trap: reason=unstable_if action=reinterpret pc=0x000000000498c668 method=org.gradle.internal.logging.sink.LogEventDispatcher.onOutput(Lorg/gradle/internal/logging/events/OutputEvent;)V @ 35
Event: 34.430 Thread 0x000000001b8a8000 Uncommon trap: reason=unstable_if action=reinterpret pc=0x000000000458b318 method=org.gradle.internal.logging.sink.LogEventDispatcher.onOutput(Lorg/gradle/internal/logging/events/OutputEvent;)V @ 35
Event: 35.086 Thread 0x000000001b8a8000 Uncommon trap: reason=unstable_if action=reinterpret pc=0x0000000004ec9378 method=org.gradle.internal.operations.DefaultBuildOperationExecutor$3.stop()V @ 61
Event: 35.090 Thread 0x000000001b8a8000 Uncommon trap: reason=unstable_if action=reinterpret pc=0x000000000493b408 method=java.util.concurrent.ArrayBlockingQueue.dequeue()Ljava/lang/Object; @ 32

Classes redefined (0 events):
No events

Internal exceptions (10 events):
Event: 26.426 Thread 0x000000001b8a8000 Exception <a 'java/lang/NoSuchMethodError': <clinit>> (0x00000000d72e9ef0) thrown at [C:\src\AOSP-openjdk-git\hotspot\src\share\vm\prims\jni.cpp, line 1615]
Event: 26.428 Thread 0x000000001b8a8000 Exception <a 'java/lang/NoSuchMethodError': <clinit>> (0x00000000d7328a18) thrown at [C:\src\AOSP-openjdk-git\hotspot\src\share\vm\prims\jni.cpp, line 1615]
Event: 26.438 Thread 0x000000002d4be000 Exception <a 'java/lang/InterruptedException'> (0x00000000d735e940) thrown at [C:\src\AOSP-openjdk-git\hotspot\src\share\vm\runtime\objectMonitor.cpp, line 1680]
Event: 26.450 Thread 0x000000001b8a8000 Exception <a 'java/lang/NoSuchMethodError': <clinit>> (0x00000000d73785a8) thrown at [C:\src\AOSP-openjdk-git\hotspot\src\share\vm\prims\jni.cpp, line 1615]
Event: 26.451 Thread 0x000000001b8a8000 Exception <a 'java/lang/NoSuchMethodError': <clinit>> (0x00000000d73864b8) thrown at [C:\src\AOSP-openjdk-git\hotspot\src\share\vm\prims\jni.cpp, line 1615]
Event: 26.452 Thread 0x000000001b8a8000 Exception <a 'java/lang/NoSuchMethodError': <clinit>> (0x00000000d7396070) thrown at [C:\src\AOSP-openjdk-git\hotspot\src\share\vm\prims\jni.cpp, line 1615]
Event: 26.457 Thread 0x000000001b8a8000 Exception <a 'java/lang/NoSuchMethodError': <clinit>> (0x00000000d73bbfc8) thrown at [C:\src\AOSP-openjdk-git\hotspot\src\share\vm\prims\jni.cpp, line 1615]
Event: 26.476 Thread 0x000000001b8a8000 Exception <a 'java/lang/NoSuchMethodError': <clinit>> (0x00000000d75222c0) thrown at [C:\src\AOSP-openjdk-git\hotspot\src\share\vm\prims\jni.cpp, line 1615]
Event: 26.480 Thread 0x000000001b8a8000 Exception <a 'java/lang/NoSuchMethodError': <clinit>> (0x00000000d75ed8c8) thrown at [C:\src\AOSP-openjdk-git\hotspot\src\share\vm\prims\jni.cpp, line 1615]
Event: 35.085 Thread 0x000000001b8a8000 Exception <a 'java/lang/reflect/InvocationTargetException'> (0x00000000d7979a70) thrown at [C:\src\AOSP-openjdk-git\hotspot\src\share\vm\runtime\reflection.cpp, line 1092]

Events (10 events):
Event: 35.086 Thread 0x000000001b8a8000 DEOPT UNPACKING pc=0x00000000031e557b sp=0x000000002eebc528 mode 2
Event: 35.086 loading class org/gradle/internal/Try
Event: 35.086 loading class org/gradle/internal/Try done
Event: 35.086 loading class org/gradle/internal/Try
Event: 35.086 loading class org/gradle/internal/Try done
Event: 35.086 loading class org/gradle/internal/execution/Result
Event: 35.086 loading class org/gradle/internal/execution/Result done
Event: 35.090 Thread 0x000000001b8a8000 Uncommon trap: trap_request=0xffffff65 fr.pc=0x000000000493b408
Event: 35.090 Thread 0x000000001b8a8000 DEOPT PACKING pc=0x000000000493b408 sp=0x000000002eebbb00
Event: 35.090 Thread 0x000000001b8a8000 DEOPT UNPACKING pc=0x00000000031e557b sp=0x000000002eebbac0 mode 2


Dynamic libraries:
0x00007ff6c0d10000 - 0x00007ff6c0d41000 	D:\sdk\jre\bin\java.exe
0x00007ffdcb8d0000 - 0x00007ffdcbac5000 	C:\Windows\SYSTEM32\ntdll.dll
0x00007ffdcb4c0000 - 0x00007ffdcb57d000 	C:\Windows\System32\KERNEL32.DLL
0x00007ffdc9360000 - 0x00007ffdc9629000 	C:\Windows\System32\KERNELBASE.dll
0x00007ffdcb630000 - 0x00007ffdcb6dc000 	C:\Windows\System32\ADVAPI32.dll
0x00007ffdc9a70000 - 0x00007ffdc9b0e000 	C:\Windows\System32\msvcrt.dll
0x00007ffdcafb0000 - 0x00007ffdcb04b000 	C:\Windows\System32\sechost.dll
0x00007ffdca930000 - 0x00007ffdcaa5a000 	C:\Windows\System32\RPCRT4.dll
0x00007ffdca680000 - 0x00007ffdca820000 	C:\Windows\System32\USER32.dll
0x00007ffdc9010000 - 0x00007ffdc9032000 	C:\Windows\System32\win32u.dll
0x00007ffdcb800000 - 0x00007ffdcb82a000 	C:\Windows\System32\GDI32.dll
0x00007ffdc9150000 - 0x00007ffdc925b000 	C:\Windows\System32\gdi32full.dll
0x00007ffdc9630000 - 0x00007ffdc96cd000 	C:\Windows\System32\msvcp_win.dll
0x00007ffdc9260000 - 0x00007ffdc9360000 	C:\Windows\System32\ucrtbase.dll
0x00007ffdb16e0000 - 0x00007ffdb197a000 	C:\Windows\WinSxS\amd64_microsoft.windows.common-controls_6595b64144ccf1df_6.0.19041.1110_none_60b5254171f9507e\COMCTL32.dll
0x00007ffdca540000 - 0x00007ffdca570000 	C:\Windows\System32\IMM32.DLL
0x000000006d170000 - 0x000000006d242000 	D:\sdk\jre\jre\bin\msvcr100.dll
0x000000006d3d0000 - 0x000000006dc1b000 	D:\sdk\jre\jre\bin\server\jvm.dll
0x00007ffdca850000 - 0x00007ffdca858000 	C:\Windows\System32\PSAPI.DLL
0x00007ffdb80d0000 - 0x00007ffdb80f7000 	C:\Windows\SYSTEM32\WINMM.dll
0x00007ffdc29f0000 - 0x00007ffdc29fa000 	C:\Windows\SYSTEM32\VERSION.dll
0x00007ffdb2280000 - 0x00007ffdb2289000 	C:\Windows\SYSTEM32\WSOCK32.dll
0x00007ffdcaee0000 - 0x00007ffdcaf4b000 	C:\Windows\System32\WS2_32.dll
0x00007ffdc64b0000 - 0x00007ffdc64bf000 	D:\sdk\jre\jre\bin\verify.dll
0x00007ffdc3630000 - 0x00007ffdc3659000 	D:\sdk\jre\jre\bin\java.dll
0x00007ffdc3610000 - 0x00007ffdc3626000 	D:\sdk\jre\jre\bin\zip.dll
0x00007ffdc9c50000 - 0x00007ffdca38f000 	C:\Windows\System32\SHELL32.dll
0x00007ffdc7120000 - 0x00007ffdc78b1000 	C:\Windows\SYSTEM32\windows.storage.dll
0x00007ffdcab80000 - 0x00007ffdcaed5000 	C:\Windows\System32\combase.dll
0x00007ffdc89b0000 - 0x00007ffdc89dc000 	C:\Windows\SYSTEM32\Wldp.dll
0x00007ffdcb580000 - 0x00007ffdcb62e000 	C:\Windows\System32\SHCORE.dll
0x00007ffdcb830000 - 0x00007ffdcb885000 	C:\Windows\System32\shlwapi.dll
0x00007ffdc8f50000 - 0x00007ffdc8f6f000 	C:\Windows\SYSTEM32\profapi.dll
0x00007ffda8960000 - 0x00007ffda897a000 	D:\sdk\jre\jre\bin\net.dll
0x00007ffdc8710000 - 0x00007ffdc877a000 	C:\Windows\system32\mswsock.dll
0x00007ffd9df70000 - 0x00007ffd9df83000 	D:\sdk\jre\jre\bin\nio.dll
0x00007ffdc1b70000 - 0x00007ffdc1b97000 	C:\Users\office\.gradle\native\f6784746aeab05261644944871eae4fe03e0ef1612fff0a4a95f87b438bc6780\windows-amd64\native-platform.dll
0x00007ffdc3c30000 - 0x00007ffdc3c3d000 	D:\sdk\jre\jre\bin\management.dll
0x00007ffdc8900000 - 0x00007ffdc8918000 	C:\Windows\SYSTEM32\CRYPTSP.dll
0x00007ffdc80b0000 - 0x00007ffdc80e4000 	C:\Windows\system32\rsaenh.dll
0x00007ffdc96d0000 - 0x00007ffdc96f7000 	C:\Windows\System32\bcrypt.dll
0x00007ffdc8f10000 - 0x00007ffdc8f3e000 	C:\Windows\SYSTEM32\USERENV.dll
0x00007ffdc9700000 - 0x00007ffdc9783000 	C:\Windows\System32\bcryptprimitives.dll
0x00007ffdc88f0000 - 0x00007ffdc88fc000 	C:\Windows\SYSTEM32\CRYPTBASE.dll
0x00007ffdc8400000 - 0x00007ffdc843b000 	C:\Windows\SYSTEM32\IPHLPAPI.DLL
0x00007ffdca840000 - 0x00007ffdca848000 	C:\Windows\System32\NSI.dll
0x00007ffdbfac0000 - 0x00007ffdbfad7000 	C:\Windows\SYSTEM32\dhcpcsvc6.DLL
0x00007ffdc0c20000 - 0x00007ffdc0c3d000 	C:\Windows\SYSTEM32\dhcpcsvc.DLL
0x00007ffdc8440000 - 0x00007ffdc850c000 	C:\Windows\SYSTEM32\DNSAPI.dll
0x00007ffdc1060000 - 0x00007ffdc106b000 	C:\Windows\SYSTEM32\WINNSI.DLL
0x00007ffdc37d0000 - 0x00007ffdc37ee000 	C:\Users\office\AppData\Local\Temp\native-platform2192687596436777568dir\native-platform.dll

VM Arguments:
jvm_args: -Xmx2048m -Dfile.encoding=UTF-8 -Duser.country=IN -Duser.language=en -Duser.variant 
java_command: org.gradle.launcher.daemon.bootstrap.GradleDaemon 6.5
java_class_path (initial): C:\Users\office\.gradle\wrapper\dists\gradle-6.5-bin\6nifqtx7604sqp1q6g8wikw7p\gradle-6.5\lib\gradle-launcher-6.5.jar
Launcher Type: SUN_STANDARD

Environment Variables:
PATH=C:\Program Files\Common Files\Oracle\Java\javapath;C:\Program Files (x86)\Common Files\Oracle\Java\javapath;C:\Windows\system32;C:\Windows;C:\Windows\System32\Wbem;C:\Windows\System32\WindowsPowerShell\v1.0\;C:\Windows\System32\OpenSSH\;C:\Program Files\Git\cmd;C:\Users\office\AppData\Local\Microsoft\WindowsApps;
USERNAME=office
OS=Windows_NT
PROCESSOR_IDENTIFIER=Intel64 Family 6 Model 126 Stepping 5, GenuineIntel



---------------  S Y S T E M  ---------------

OS: Windows 10.0 , 64 bit Build 19041 (10.0.19041.1023)

CPU:total 8 (initial active 8) (4 cores per cpu, 2 threads per core) family 6 model 126 stepping 5, cmov, cx8, fxsr, mmx, sse, sse2, sse3, ssse3, sse4.1, sse4.2, popcnt, avx, avx2, aes, clmul, erms, 3dnowpref, lzcnt, ht, tsc, tscinvbit, bmi1, bmi2, adx

Memory: 4k page, physical 8178936k(260016k free), swap 25700340k(0k free)

vm_info: OpenJDK 64-Bit Server VM (25.242-b01) for windows-amd64 JRE (1.8.0_242-release-1644-b01), built by "builder" with MS VC++ 10.0 (VS2010)

time: Mon Aug 30 19:03:47 2021
timezone: India Standard Time
elapsed time: 35 seconds (0d 0h 0m 35s)

